…
---
## Using `ggplot` to create a scatter plot

```yaml
type: FullSlide
key: b1b6623613
```

`@part1`
```{r}
print(prop_data)
```

```
# A tibble: 52 x 5
   state med_income med_prop_val population mean_commute_minutes
   <chr>      <dbl>        <dbl>      <int>                <dbl>
 1 AK         64222       197300     733375                 10.5
 2 AL         36924        94800    4830620                 25.3
 3 AR         35833        83300    2958208                 22.4
 4 AZ         44748       128700    6641928                 20.6
 5 CA         53075       252100   38421464                 23.4
 6 CO         48098       198900    5278906                 19.5
 7 CT         69228       246450    3593222                 24.3
 8 DC         70848       475800     647484                 28.3
 9 DE         54976       228500     926454                 24.5
10 FL         43355       125600   19645772                 24.8
# ... with 42 more rows
```
…
